<?xml version="1.0" encoding="utf-8"?>
<!-- Generator: Adobe Illustrator 24.1.0, SVG Export Plug-In . SVG Version: 6.00 Build 0)  -->
<svg version="1.1" id="Layer_1" xmlns="http://www.w3.org/2000/svg" xmlns:xlink="http://www.w3.org/1999/xlink" x="0px" y="0px"
	 viewBox="0 0 185.5 30.4" style="enable-background:new 0 0 185.5 30.4;" xml:space="preserve">
<style type="text/css">
	.st0{fill:#111733;}
	.st1{fill:#BE1E2D;}
</style>
<desc>Created with Sketch.</desc>
<g>
	<path class="st0" d="M26.6,18.8c0-2.2-1.6-3.3-3.3-3.3c-1.7,0-3.4,1.1-3.4,3.3V30h-6.6V18.8c0-2.2-1.7-3.3-3.3-3.3
		c-1.7,0-3.4,1.1-3.4,3.3V30H0V9.8h6.1l0.2,2.1c1.4-1.8,3.9-2.5,6.2-2.5c2.7,0,5.3,1.1,6.3,3.4c1.6-2.3,4.2-3.4,6.8-3.4
		c3.9,0,7.6,2.6,7.6,7.5V30h-6.6V18.8z"/>
	<path class="st0" d="M54.5,28.6c-1.6,0.9-4.4,1.8-7.5,1.8c-7.5,0-11.9-4.2-11.9-10.5c0-6.3,4.4-10.5,10.3-10.5
		c5.8,0,11,3.8,9.5,12.2H41.5c0.3,2.3,2.8,3.2,5.5,3.2c2.7,0,5.3-0.6,6.6-1.2L54.5,28.6z M49,17.7c0-1.6-1.3-3.1-3.5-3.1
		c-2.4,0-3.8,1.4-4,3.1H49z"/>
	<path class="st0" d="M72.3,30l-0.2-1.6c-1.2,1.2-3.4,2-5.9,2c-5.7,0-9.4-4.4-9.4-10.4c0-6,3.7-10.5,9.4-10.5c3,0,4.9,1.1,6.1,2.5
		V0.4h6.4V30H72.3z M63.5,19.9c0,2.7,1.9,4.6,4.4,4.6c2.5,0,4.3-1.9,4.3-4.6c0-2.7-1.8-4.6-4.3-4.6C65.4,15.3,63.5,17.1,63.5,19.9z"
		/>
	<path class="st0" d="M81.5,3.6C81.5,1.5,83,0,85.1,0c2.1,0,3.7,1.5,3.7,3.6c0,2.1-1.5,3.6-3.7,3.6C83,7.2,81.5,5.8,81.5,3.6z
		 M88.5,30h-6.6V9.8h6.6V30z"/>
	<path class="st0" d="M106.2,30l-0.2-2.1c-1.2,1.4-3.1,2.5-5.9,2.5c-5.4,0-9.3-4.4-9.3-10.5c0-6,3.9-10.5,9.3-10.5
		c2.8,0,4.8,1.1,5.9,2.5l0.2-2.1h6.4V30H106.2z M97.3,19.9c0,2.7,1.8,4.6,4.3,4.6c2.6,0,4.3-1.9,4.3-4.6c0-2.7-1.8-4.6-4.3-4.6
		C99.1,15.3,97.3,17.2,97.3,19.9z"/>
	<path class="st0" d="M129.1,30V18.8c0-2.2-1.8-3.3-3.4-3.3c-1.7,0-3.4,1.1-3.4,3.3V30h-6.6V9.8h6.1l0.2,2.1
		c1.4-1.8,3.9-2.5,6.2-2.5c3.8,0,7.4,2.7,7.4,7.5V30H129.1z"/>
	<path class="st0" d="M157,28.6c-1.6,0.9-4.4,1.8-7.5,1.8c-7.5,0-11.9-4.2-11.9-10.5c0-6.3,4.4-10.5,10.3-10.5
		c5.8,0,11,3.8,9.5,12.2H144c0.3,2.3,2.8,3.2,5.5,3.2c2.7,0,5.3-0.6,6.6-1.2L157,28.6z M151.5,17.7c0-1.6-1.3-3.1-3.5-3.1
		c-2.4,0-3.8,1.4-4,3.1H151.5z"/>
	<path class="st0" d="M168.3,15.2v6.5c0,3.4,3,3.1,6.2,2.4l0.5,5.4c-1.5,0.5-3.7,0.9-5.4,0.9c-4.6,0-8-2.2-8-7.6v-7.6h-3.2V9.8h3.2
		V3.4h6.4v6.5h5.7v5.4H168.3z"/>
</g>
<path class="st1" d="M181.8,30c2.1,0,3.8-1.6,3.8-3.7s-1.6-3.7-3.8-3.7s-3.8,1.6-3.8,3.7C178,28.3,179.8,30,181.8,30L181.8,30z"/>
</svg>
